<?xml version="1.0" encoding="UTF-8" standalone="no"?>
<!DOCTYPE svg PUBLIC "-//W3C//DTD SVG 1.1//EN" "http://www.w3.org/Graphics/SVG/1.1/DTD/svg11.dtd">
<svg width="100%" height="100%" viewBox="0 0 512 512" version="1.1" xmlns="http://www.w3.org/2000/svg" xmlns:xlink="http://www.w3.org/1999/xlink" xml:space="preserve" xmlns:serif="http://www.serif.com/" style="fill-rule:evenodd;clip-rule:evenodd;stroke-linejoin:round;stroke-miterlimit:2;">
    <g transform="matrix(1.29369,0,0,1.29369,-84.0342,-190.055)">
        <circle cx="263.358" cy="344.225" r="175.218" style="fill:rgb(241,196,15);"/>
    </g>
    <g>
        <g>
            <path d="M256.061,0.062C115.134,0.062 0,115.072 0,256C0,396.928 115.134,511.938 256.061,511.938C396.997,511.939 512,396.917 512,256C512,115.063 396.979,0.062 256.061,0.062ZM256.061,481.946C131.406,481.946 29.992,380.586 29.992,256C29.992,131.414 131.406,30.054 256.061,30.054C380.648,30.054 482.007,131.413 482.007,256C482.007,380.587 380.649,481.946 256.061,481.946Z" style="fill-rule:nonzero;"/>
        </g>
    </g>
    <g>
        <g>
            <path d="M333.147,197.566C317.554,173.374 296.198,140.24 269.094,92.627C266.427,87.942 261.451,85.049 256.061,85.049C250.671,85.049 245.696,87.942 243.028,92.626C215.916,140.255 194.561,173.404 178.968,197.607C149.527,243.309 136.089,264.168 136.089,300.988C136.089,367.14 189.908,420.959 256.06,420.959C322.212,420.959 376.031,367.14 376.031,300.988C376.033,264.105 362.594,243.253 333.147,197.566ZM256.061,390.968C206.447,390.968 166.083,350.604 166.083,300.99C166.083,272.995 176.458,256.891 204.183,213.852C217.382,193.363 234.658,166.544 256.062,130.029C277.459,166.529 294.738,193.337 307.938,213.816C335.665,256.837 346.041,272.935 346.041,300.989C346.04,350.603 305.676,390.968 256.061,390.968Z" style="fill-rule:nonzero;"/>
        </g>
    </g>
</svg>
